1.5 Data | Introduction to Statistics and Computation with Data
…
NOTE: Display does NOT show grouping, but it will specify the groups

1.5.8.6 summarise():

Compute table of summaries

Summarises multiple values into a single value

Gives the mean of age for each gender.

summarise(GS, mean(Age, na.rm = TRUE))
#> # A tibble: 10 × 2
#>   Sex    `mean(Age, na.rm = TRUE)`
#>   <chr>                      <dbl>
#> 1 F                           65.2
#> 2 Female                      60.7
#> 3 M                           66.1
#> 4 M E23                       71  
#> 5 Male                        60.7
#> 6 N                           39  
#> # … with 4 more rows
#> # ℹ Use `print(n = ...)` to see more rows
…
Arranges the data in alphabetical order of the variable - Description

orderdf2 <- arrange(decdf, Description)

1.5.8.10 The pipe operator - %>%

Used to chain codes

x %>% f(y) becomes f(x, y)

filtered_data <- filter(decdf, Month != "September")
grouped_data <- group_by(filtered_data, Month)
summarise(grouped_data, mean(Age, na.rm = TRUE))
#> # A tibble: 11 × 2
#>   Month    `mean(Age, na.rm = TRUE)`
#>   <chr>                        <dbl>
#> 1 April                         61.2
#> 2 August                        61.3
#> 3 December                      64.9
#> 4 February                      65.3
#> 5 January                       63.6
#> 6 July                          60.0
#> # … with 5 more rows
#> # ℹ Use `print(n = ...)` to see more rows

The same code written shortly with Pipe - %>%

decdf %>%
  filter(Month != 5) %>%
  group_by(Month) %>%
  summarise(mean(Age, na.rm = TRUE))
#> # A tibble: 12 × 2
#>   Month    `mean(Age, na.rm = TRUE)`
#>   <chr>                        <dbl>
#> 1 April                         61.2
#> 2 August                        61.3
#> 3 December                      64.9
#> 4 February                      65.3
#> 5 January                       63.6
#> 6 July                          60.0
#> # … with 6 more rows
#> # ℹ Use `print(n = ...)` to see more rows
…
